{
    "scopes": [
        {
            "key": "READ",
            "restPathKeys": ["rapidview", "planBacklogData", "rapidviewconfigEditmodel", "epics", "board",  "epic", "sprint", "issue", "sprintIssues"],
            "methods": ["GET"]
        },
        {
            "key": "WRITE",
            "restPathKeys": ["sprintRank", "rank", "addIssueToEpic", "removeIssuesFromEpic", "rankIssues", "sprint"],
            "methods": ["PUT"]
        },
        {
            "key": "WRITE",
            "restPathKeys": [ "moveToBacklog", "moveIssuesToSprint", "createSprint", "sprint"],
            "methods": ["POST"]
        },
        {
            "key": "DELETE",
            "restPathKeys": ["sprint"],
            "methods": ["DELETE"]
        }
    ],
    "restPaths": [
        {
            "key": "rapidview",
            "name": "greenhopper",
            "basePaths": ["/rapidview(/[0-9]+)?$"],
            "versions": ["1.0"],
            "public": false
        },
        {
            "key": "planBacklogData",
            "name": "greenhopper",
            "basePaths": ["/xboard/plan/backlog/data$"],
            "versions": ["1.0"],
            "public": false
        },
        {
            "key": "rapidviewconfigEditmodel",
            "name": "greenhopper",
            "basePaths": ["/rapidviewconfig/editmodel$"],
            "versions": ["1.0"],
            "public": false
        },
        {
            "key": "rank",
            "name": "greenhopper",
            "basePaths": ["/api/rank/(before|after)$"],
            "versions": ["1.0"],
            "public": false
        },
        {
            "key": "sprintRank",
            "name": "greenhopper",
            "basePaths": ["/sprint/rank$"],
            "versions": ["1.0"],
            "public": false
        },
        {
            "key": "epics",
            "name": "greenhopper",
            "basePaths": ["/epics$"],
            "versions": ["1.0"],
            "public": false
        },
        {
            "key": "addIssueToEpic",
            "name": "greenhopper",
            "basePaths": ["/epics/.+/add$"],
            "versions": ["1.0"],
            "public": false
        },
        {
            "key": "removeIssuesFromEpic",
            "name": "greenhopper",
            "basePaths": ["/epics/remove$"],
            "versions": ["1.0"],
            "public": false
        },
        {
            "key": "board",
            "name": "agile",
            "basePaths": ["/board($|\\?.*|/.*)"],
            "versions": ["1.0"],
            "public": true
        },
        {
            "key": "moveToBacklog",
            "name": "agile",
            "basePaths": ["/backlog/issue($|\\?.*)"],
            "versions": ["1.0"],
            "public": true
        },
        {
            "key": "epic",
            "name": "agile",
            "basePaths": ["/epic/[^/]+"],
            "versions": ["1.0"],
            "public": true
        },
        {
            "key": "issue",
            "name": "agile",
            "basePaths": ["/issue/[^/]+"],
            "versions": ["1.0"],
            "public": true
        },
        {
            "key": "rankIssues",
            "name": "agile",
            "basePaths": ["/issue/rank$"],
            "versions": ["1.0"],
            "public": true
        },
        {
            "key": "createSprint",
            "name": "agile",
            "basePaths": ["/sprint$"],
            "versions": ["1.0"],
            "public": true
        },
        {
            "key": "sprint",
            "name": "agile",
            "basePaths": ["/sprint/[0-9]+$"],
            "versions": ["1.0"],
            "public": true
        },
        {
            "key": "sprintIssues",
            "name": "agile",
            "basePaths": ["/sprint/[0-9]+/issue($|\\?.*)"],
            "versions": ["1.0"],
            "public": true
        },
        {
            "key": "moveIssuesToSprint",
            "name": "agile",
            "basePaths": ["/sprint/[0-9]+/issue$"],
            "versions": ["1.0"],
            "public": true
        }
    ]
}